{
    "dev":{
        "apiUrl":"https://7qaigvsxoj.execute-api.us-east-1.amazonaws.com/dev"
         
    },
    "produccion":{
        "apiUrl":"https://7qaigvsxoj.execute-api.us-east-1.amazonaws.com/dev"
    },
    "files":{
        "apiUrl":"https://btbysya7vd.execute-api.us-east-1.amazonaws.com/dev"
    }
  
}